module gitlab.com/stefarf/redisclient

go 1.19

require gitlab.com/stefarf/iferr v0.1.1

require (
	github.com/cespare/xxhash/v2 v2.2.0 // indirect
	github.com/dgryski/go-rendezvous v0.0.0-20200823014737-9f7001d12a5f // indirect
	github.com/redis/go-redis/v9 v9.0.5 // indirect
)
